{
    "job_title": null,
    "job_location": null,
    "mode": "MD",
    "input_pdb": null,
    "input_map": null,
    "map_resolution": null,
    "iterations": 10,
    "input_rigid": null,
    "max_atom_disp": 0.39,
    "phi_psi_restraints": true,
    "test_mode": false,
    "refine_b": false,
    "fsc_calc": false,
    "validate": false,
    "half_map_1": null,
    "half_map_2": null
}