GFORTRAN module version '0' created from ./ext/DockEMlibV2.03.f90 on Fri Jul  3 22:01:55 2015
MD5:a8097a863468e6d3a46703deb8dd5cc5 -- If you edit this, you'll get what you deserve.

(() () () () () () () () () () () () () () () () () () () () () () () ()
() () ())

()

()

()

()

(2 'amof' 'coordinates' 'amof' 1 ((VARIABLE UNKNOWN-INTENT UNKNOWN-PROC
UNKNOWN UNKNOWN DIMENSION) (REAL 4 0 0 REAL ()) 0 0 () (1 EXPLICIT (
CONSTANT (INTEGER 4 0 0 INTEGER ()) 0 '1') (CONSTANT (INTEGER 4 0 0
INTEGER ()) 0 '2000000')) 0 () () () 0 0)
3 'angles' 'coordinates' 'angles' 1 ((VARIABLE UNKNOWN-INTENT
UNKNOWN-PROC UNKNOWN UNKNOWN DIMENSION) (REAL 4 0 0 REAL ()) 0 0 () (2
EXPLICIT (CONSTANT (INTEGER 4 0 0 INTEGER ()) 0 '1') (CONSTANT (INTEGER
4 0 0 INTEGER ()) 0 '30000') (CONSTANT (INTEGER 4 0 0 INTEGER ()) 0 '1')
(CONSTANT (INTEGER 4 0 0 INTEGER ()) 0 '3')) 0 () () () 0 0)
4 'coordinates' 'coordinates' 'coordinates' 1 ((MODULE UNKNOWN-INTENT
UNKNOWN-PROC UNKNOWN UNKNOWN) (UNKNOWN 0 0 0 UNKNOWN ()) 0 0 () () 0 ()
() () 0 0)
5 'coords' 'coordinates' 'coords' 1 ((VARIABLE UNKNOWN-INTENT
UNKNOWN-PROC UNKNOWN UNKNOWN DIMENSION) (REAL 4 0 0 REAL ()) 0 0 () (2
EXPLICIT (CONSTANT (INTEGER 4 0 0 INTEGER ()) 0 '1') (CONSTANT (INTEGER
4 0 0 INTEGER ()) 0 '2000000') (CONSTANT (INTEGER 4 0 0 INTEGER ()) 0 '1')
(CONSTANT (INTEGER 4 0 0 INTEGER ()) 0 '4')) 0 () () () 0 0)
6 'localmap' 'coordinates' 'localmap' 1 ((VARIABLE UNKNOWN-INTENT
UNKNOWN-PROC UNKNOWN UNKNOWN DIMENSION) (REAL 4 0 0 REAL ()) 0 0 () (1
EXPLICIT (CONSTANT (INTEGER 4 0 0 INTEGER ()) 0 '1') (CONSTANT (INTEGER
4 0 0 INTEGER ()) 0 '2000000')) 0 () () () 0 0)
7 'maxangles' 'coordinates' 'maxangles' 1 ((PARAMETER UNKNOWN-INTENT
UNKNOWN-PROC UNKNOWN IMPLICIT-SAVE) (INTEGER 4 0 0 INTEGER ()) 0 0 () (
CONSTANT (INTEGER 4 0 0 INTEGER ()) 0 '30000') () 0 () () () 0 0)
8 'maxatoms' 'coordinates' 'maxatoms' 1 ((PARAMETER UNKNOWN-INTENT
UNKNOWN-PROC UNKNOWN IMPLICIT-SAVE) (INTEGER 4 0 0 INTEGER ()) 0 0 () (
CONSTANT (INTEGER 4 0 0 INTEGER ()) 0 '2000000') () 0 () () () 0 0)
9 'sobj' 'coordinates' 'sobj' 1 ((VARIABLE UNKNOWN-INTENT UNKNOWN-PROC
UNKNOWN UNKNOWN DIMENSION) (REAL 4 0 0 REAL ()) 0 0 () (2 EXPLICIT (
CONSTANT (INTEGER 4 0 0 INTEGER ()) 0 '1') (CONSTANT (INTEGER 4 0 0
INTEGER ()) 0 '2000000') (CONSTANT (INTEGER 4 0 0 INTEGER ()) 0 '1') (
CONSTANT (INTEGER 4 0 0 INTEGER ()) 0 '4')) 0 () () () 0 0)
10 'squares' 'coordinates' 'squares' 1 ((VARIABLE UNKNOWN-INTENT
UNKNOWN-PROC UNKNOWN UNKNOWN DIMENSION) (REAL 4 0 0 REAL ()) 0 0 () (1
EXPLICIT (CONSTANT (INTEGER 4 0 0 INTEGER ()) 0 '1') (CONSTANT (INTEGER
4 0 0 INTEGER ()) 0 '2000000')) 0 () () () 0 0)
)

('amof' 0 2 'angles' 0 3 'coordinates' 0 4 'coords' 0 5 'localmap' 0 6
'maxangles' 0 7 'maxatoms' 0 8 'sobj' 0 9 'squares' 0 10)
