GFORTRAN module version '0' created from ./ext/DockEMlibV2.03.f90 on Fri Jul  3 22:01:55 2015
MD5:8b7d0e1dc5f63ef507c6635905c0db2a -- If you edit this, you'll get what you deserve.

(() () () () () () () () () () () () () () () () () () () () () () () ()
() () ())

()

()

(('__BLNK__' 2 0 0 '__BLNK__'))

(('mrc_image.eq.0' (VARIABLE (INTEGER 4 0 0 INTEGER ()) 1 3 ((ARRAY (
FULL 0)))) 'mrc_image.eq.0' (VARIABLE (INTEGER 4 0 0 INTEGER ()) 0 4 ()))
('mrc_image.eq.1' (VARIABLE (INTEGER 4 0 0 INTEGER ()) 1 5 ((ARRAY (
FULL 0)))) 'mrc_image.eq.1' (VARIABLE (INTEGER 4 0 0 INTEGER ()) 0 6 ()))
('mrc_image.eq.2' (VARIABLE (REAL 4 0 0 REAL ()) 1 7 ((ARRAY (FULL 0))))
'mrc_image.eq.2' (VARIABLE (COMPLEX 4 0 0 COMPLEX ()) 1 8 ((ARRAY (FULL
0))))) ('mrc_image.eq.3' (VARIABLE (REAL 4 0 0 REAL ()) 1 9 ((ARRAY (
FULL 0)))) 'mrc_image.eq.3' (VARIABLE (COMPLEX 4 0 0 COMPLEX ()) 1 10 (
(ARRAY (FULL 0))))) ('mrc_image.eq.4' (VARIABLE (INTEGER 4 0 0 INTEGER ())
0 2 ()) 'mrc_image.eq.4' (VARIABLE (INTEGER 4 0 0 INTEGER ()) 1 11 ((
ARRAY (FULL 0))))))

(9 'aline' 'mrc_image' 'aline' 1 ((VARIABLE UNKNOWN-INTENT UNKNOWN-PROC
UNKNOWN UNKNOWN DIMENSION) (REAL 4 0 0 REAL ()) 0 0 () (1 EXPLICIT (
CONSTANT (INTEGER 4 0 0 INTEGER ()) 0 '1') (CONSTANT (INTEGER 4 0 0
INTEGER ()) 0 '8192')) 0 () () () 0 0)
12 'cell' 'mrc_image' 'cell' 1 ((VARIABLE UNKNOWN-INTENT UNKNOWN-PROC
UNKNOWN UNKNOWN DIMENSION) (REAL 4 0 0 REAL ()) 0 0 () (1 EXPLICIT (
CONSTANT (INTEGER 4 0 0 INTEGER ()) 0 '1') (CONSTANT (INTEGER 4 0 0
INTEGER ()) 0 '6')) 0 () () () 0 0)
10 'cline' 'mrc_image' 'cline' 1 ((VARIABLE UNKNOWN-INTENT UNKNOWN-PROC
UNKNOWN UNKNOWN DIMENSION) (COMPLEX 4 0 0 COMPLEX ()) 0 0 () (1 EXPLICIT
(CONSTANT (INTEGER 4 0 0 INTEGER ()) 0 '1') (CONSTANT (INTEGER 4 0 0
INTEGER ()) 0 '4096')) 0 () () () 0 0)
13 'cnv' 'mrc_image' 'cnv' 1 ((VARIABLE UNKNOWN-INTENT UNKNOWN-PROC
UNKNOWN UNKNOWN DATA) (REAL 4 0 0 REAL ()) 0 0 () () 0 () () () 0 0)
8 'cout' 'mrc_image' 'cout' 1 ((VARIABLE UNKNOWN-INTENT UNKNOWN-PROC
UNKNOWN UNKNOWN DIMENSION) (COMPLEX 4 0 0 COMPLEX ()) 0 0 () (1 EXPLICIT
(CONSTANT (INTEGER 4 0 0 INTEGER ()) 0 '1') (CONSTANT (INTEGER 4 0 0
INTEGER ()) 0 '4096')) 0 () () () 0 0)
14 'dmax' 'mrc_image' 'dmax' 1 ((VARIABLE UNKNOWN-INTENT UNKNOWN-PROC
UNKNOWN UNKNOWN) (REAL 4 0 0 REAL ()) 0 0 () () 0 () () () 0 0)
15 'dmean' 'mrc_image' 'dmean' 1 ((VARIABLE UNKNOWN-INTENT UNKNOWN-PROC
UNKNOWN UNKNOWN) (REAL 4 0 0 REAL ()) 0 0 () () 0 () () () 0 0)
16 'dmin' 'mrc_image' 'dmin' 1 ((VARIABLE UNKNOWN-INTENT UNKNOWN-PROC
UNKNOWN UNKNOWN) (REAL 4 0 0 REAL ()) 0 0 () () 0 () () () 0 0)
17 'infile' 'mrc_image' 'infile' 1 ((VARIABLE UNKNOWN-INTENT
UNKNOWN-PROC UNKNOWN UNKNOWN) (CHARACTER 1 0 0 CHARACTER ((CONSTANT (
INTEGER 4 0 0 INTEGER ()) 0 '256'))) 0 0 () () 0 () () () 0 0)
4 'ixmax' 'mrc_image' 'ixmax' 1 ((VARIABLE UNKNOWN-INTENT UNKNOWN-PROC
UNKNOWN UNKNOWN IN_COMMON) (INTEGER 4 0 0 INTEGER ()) 0 18 () () 0 () ()
() 0 0)
6 'ixmin' 'mrc_image' 'ixmin' 1 ((VARIABLE UNKNOWN-INTENT UNKNOWN-PROC
UNKNOWN UNKNOWN IN_COMMON) (INTEGER 4 0 0 INTEGER ()) 0 19 () () 0 () ()
() 0 0)
3 'ixyzmax' 'mrc_image' 'ixyzmax' 1 ((VARIABLE UNKNOWN-INTENT
UNKNOWN-PROC UNKNOWN UNKNOWN DIMENSION IN_COMMON) (INTEGER 4 0 0 INTEGER
()) 0 0 () (1 EXPLICIT (CONSTANT (INTEGER 4 0 0 INTEGER ()) 0 '1') (
CONSTANT (INTEGER 4 0 0 INTEGER ()) 0 '3')) 0 () () () 0 0)
5 'ixyzmin' 'mrc_image' 'ixyzmin' 1 ((VARIABLE UNKNOWN-INTENT
UNKNOWN-PROC UNKNOWN UNKNOWN DIMENSION IN_COMMON) (INTEGER 4 0 0 INTEGER
()) 0 0 () (1 EXPLICIT (CONSTANT (INTEGER 4 0 0 INTEGER ()) 0 '1') (
CONSTANT (INTEGER 4 0 0 INTEGER ()) 0 '3')) 0 () () () 0 0)
18 'iymax' 'mrc_image' 'iymax' 1 ((VARIABLE UNKNOWN-INTENT UNKNOWN-PROC
UNKNOWN UNKNOWN IN_COMMON) (INTEGER 4 0 0 INTEGER ()) 0 20 () () 0 () ()
() 0 0)
19 'iymin' 'mrc_image' 'iymin' 1 ((VARIABLE UNKNOWN-INTENT UNKNOWN-PROC
UNKNOWN UNKNOWN IN_COMMON) (INTEGER 4 0 0 INTEGER ()) 0 21 () () 0 () ()
() 0 0)
20 'izmax' 'mrc_image' 'izmax' 1 ((VARIABLE UNKNOWN-INTENT UNKNOWN-PROC
UNKNOWN UNKNOWN IN_COMMON) (INTEGER 4 0 0 INTEGER ()) 0 0 () () 0 () ()
() 0 0)
21 'izmin' 'mrc_image' 'izmin' 1 ((VARIABLE UNKNOWN-INTENT UNKNOWN-PROC
UNKNOWN UNKNOWN IN_COMMON) (INTEGER 4 0 0 INTEGER ()) 0 4 () () 0 () ()
() 0 0)
22 'labels' 'mrc_image' 'labels' 1 ((VARIABLE UNKNOWN-INTENT
UNKNOWN-PROC UNKNOWN UNKNOWN DIMENSION) (INTEGER 4 0 0 INTEGER ()) 0 0 ()
(2 EXPLICIT (CONSTANT (INTEGER 4 0 0 INTEGER ()) 0 '1') (CONSTANT (
INTEGER 4 0 0 INTEGER ()) 0 '20') (CONSTANT (INTEGER 4 0 0 INTEGER ()) 0
'1') (CONSTANT (INTEGER 4 0 0 INTEGER ()) 0 '10')) 0 () () () 0 0)
23 'mrc_image' 'mrc_image' 'mrc_image' 1 ((MODULE UNKNOWN-INTENT
UNKNOWN-PROC UNKNOWN UNKNOWN) (UNKNOWN 0 0 0 UNKNOWN ()) 0 0 () () 0 ()
() () 0 0)
24 'mxyz' 'mrc_image' 'mxyz' 1 ((VARIABLE UNKNOWN-INTENT UNKNOWN-PROC
UNKNOWN UNKNOWN DIMENSION) (INTEGER 4 0 0 INTEGER ()) 0 0 () (1 EXPLICIT
(CONSTANT (INTEGER 4 0 0 INTEGER ()) 0 '1') (CONSTANT (INTEGER 4 0 0
INTEGER ()) 0 '3')) 0 () () () 0 0)
2 'nx' 'mrc_image' 'nx' 1 ((VARIABLE UNKNOWN-INTENT UNKNOWN-PROC UNKNOWN
UNKNOWN IN_COMMON) (INTEGER 4 0 0 INTEGER ()) 0 25 () () 0 () () () 0 0)
26 'nxm1' 'mrc_image' 'nxm1' 1 ((VARIABLE UNKNOWN-INTENT UNKNOWN-PROC
UNKNOWN UNKNOWN) (INTEGER 4 0 0 INTEGER ()) 0 0 () () 0 () () () 0 0)
27 'nxp1' 'mrc_image' 'nxp1' 1 ((VARIABLE UNKNOWN-INTENT UNKNOWN-PROC
UNKNOWN UNKNOWN) (INTEGER 4 0 0 INTEGER ()) 0 0 () () 0 () () () 0 0)
28 'nxp2' 'mrc_image' 'nxp2' 1 ((VARIABLE UNKNOWN-INTENT UNKNOWN-PROC
UNKNOWN UNKNOWN) (INTEGER 4 0 0 INTEGER ()) 0 0 () () 0 () () () 0 0)
11 'nxyz' 'mrc_image' 'nxyz' 1 ((VARIABLE UNKNOWN-INTENT UNKNOWN-PROC
UNKNOWN UNKNOWN DIMENSION IN_COMMON) (INTEGER 4 0 0 INTEGER ()) 0 0 () (
1 EXPLICIT (CONSTANT (INTEGER 4 0 0 INTEGER ()) 0 '1') (CONSTANT (
INTEGER 4 0 0 INTEGER ()) 0 '3')) 0 () () () 0 0)
29 'nxyzst' 'mrc_image' 'nxyzst' 1 ((VARIABLE UNKNOWN-INTENT
UNKNOWN-PROC UNKNOWN UNKNOWN DIMENSION DATA) (INTEGER 4 0 0 INTEGER ())
0 0 () (1 EXPLICIT (CONSTANT (INTEGER 4 0 0 INTEGER ()) 0 '1') (
CONSTANT (INTEGER 4 0 0 INTEGER ()) 0 '3')) 0 () () () 0 0)
25 'ny' 'mrc_image' 'ny' 1 ((VARIABLE UNKNOWN-INTENT UNKNOWN-PROC
UNKNOWN UNKNOWN IN_COMMON) (INTEGER 4 0 0 INTEGER ()) 0 30 () () 0 () ()
() 0 0)
31 'nym1' 'mrc_image' 'nym1' 1 ((VARIABLE UNKNOWN-INTENT UNKNOWN-PROC
UNKNOWN UNKNOWN) (INTEGER 4 0 0 INTEGER ()) 0 0 () () 0 () () () 0 0)
30 'nz' 'mrc_image' 'nz' 1 ((VARIABLE UNKNOWN-INTENT UNKNOWN-PROC
UNKNOWN UNKNOWN IN_COMMON) (INTEGER 4 0 0 INTEGER ()) 0 6 () () 0 () ()
() 0 0)
32 'nzm1' 'mrc_image' 'nzm1' 1 ((VARIABLE UNKNOWN-INTENT UNKNOWN-PROC
UNKNOWN UNKNOWN) (INTEGER 4 0 0 INTEGER ()) 0 0 () () 0 () () () 0 0)
7 'out' 'mrc_image' 'out' 1 ((VARIABLE UNKNOWN-INTENT UNKNOWN-PROC
UNKNOWN UNKNOWN DIMENSION) (REAL 4 0 0 REAL ()) 0 0 () (1 EXPLICIT (
CONSTANT (INTEGER 4 0 0 INTEGER ()) 0 '1') (CONSTANT (INTEGER 4 0 0
INTEGER ()) 0 '8192')) 0 () () () 0 0)
33 'outfile' 'mrc_image' 'outfile' 1 ((VARIABLE UNKNOWN-INTENT
UNKNOWN-PROC UNKNOWN UNKNOWN) (CHARACTER 1 0 0 CHARACTER ((CONSTANT (
INTEGER 4 0 0 INTEGER ()) 0 '256'))) 0 0 () () 0 () () () 0 0)
34 'title' 'mrc_image' 'title' 1 ((VARIABLE UNKNOWN-INTENT UNKNOWN-PROC
UNKNOWN UNKNOWN) (CHARACTER 1 0 0 CHARACTER ((CONSTANT (INTEGER 4 0 0
INTEGER ()) 0 '80'))) 0 0 () () 0 () () () 0 0)
)

('aline' 0 9 'cell' 0 12 'cline' 0 10 'cnv' 0 13 'cout' 0 8 'dmax' 0 14
'dmean' 0 15 'dmin' 0 16 'infile' 0 17 'ixmax' 0 4 'ixmin' 0 6 'ixyzmax'
0 3 'ixyzmin' 0 5 'iymax' 0 18 'iymin' 0 19 'izmax' 0 20 'izmin' 0 21
'labels' 0 22 'mrc_image' 0 23 'mxyz' 0 24 'nx' 0 2 'nxm1' 0 26 'nxp1' 0
27 'nxp2' 0 28 'nxyz' 0 11 'nxyzst' 0 29 'ny' 0 25 'nym1' 0 31 'nz' 0 30
'nzm1' 0 32 'out' 0 7 'outfile' 0 33 'title' 0 34)
